Codigo dane;ano;Nivel;Casificacion
252838000893;2017;Primaria;4.62
252838000893;2016;Primaria;5.16
252838000893;2015;Primaria;4.08
252838000893;2017;Secundaria;6.44
252838000893;2016;Secundaria;4.67
252838000893;2015;Secundaria;3.95
252838000893;2017;Media;5.69
252838000893;2016;Media;4.39
252838000893;2015;Media;5.02
152678000129;2017;Primaria;4.09
152678000129;2016;Primaria;6.32
152678000129;2015;Primaria;3.9
152678000129;2017;Secundaria;5.81
152678000129;2016;Secundaria;7.2
152678000129;2015;Secundaria;4.1
152678000129;2017;Media;7.86
152678000129;2016;Media;7.48
152678000129;2015;Media;7.04
152678000447;2017;Primaria;5.81
152678000447;2016;Primaria;7
152678000447;2015;Primaria;5.04
152678000447;2017;Secundaria;5.83
152678000447;2016;Secundaria;7.63
152678000447;2015;Secundaria;3.14
152678000447;2017;Media;7.44
152678000447;2016;Media;7.35
152678000447;2015;Media;2.33
252678000433;2017;Primaria;7.09
252678000433;2016;Primaria;6.13
252678000433;2015;Primaria;5.94
252678000433;2017;Secundaria;7.58
252678000433;2016;Secundaria;7.49
252678000433;2015;Secundaria;3.37
252678000433;2017;Media;8.09
252678000433;2016;Media;7.3
252678000433;2015;Media;7.42
252678000654;2017;Primaria;5.46
252678000654;2016;Primaria;4.12
252678000654;2015;Primaria;1
252678000654;2017;Secundaria;5.82
252678000654;2016;Secundaria;5.74
252678000654;2015;Secundaria;3.22
252678000654;2017;Media;7.51
252678000654;2016;Media;4.28
252678000654;2015;Media;5.51
252678001154;2017;Primaria;5.34
252678001154;2016;Primaria;4.77
252678001154;2015;Primaria;4.38
252678001154;2017;Secundaria;7.23
252678001154;2016;Secundaria;2.86
252678001154;2015;Secundaria;5.49
252678001154;2017;Media;4.04
252678001154;2016;Media;4.13
252678001154;2015;Media;7.03
152699000641;2017;Primaria;5.99
152699000641;2016;Primaria;5.67
152699000641;2015;Primaria;4.9
152699000641;2017;Secundaria;7.36
152699000641;2016;Secundaria;7.23
152699000641;2015;Secundaria;3.95
152699000641;2017;Media;4.4
152699000641;2016;Media;5.77
152699000641;2015;Media;4.04
252699000549;2017;Primaria;6.48
252699000549;2016;Primaria;6.45
252699000549;2015;Primaria;5.32
252699000549;2017;Secundaria;5.65
252699000549;2016;Secundaria;4
252699000549;2015;Secundaria;3.87
252699000549;2017;Media;5.87
252699000549;2016;Media;4.06
252699000549;2015;Media;6.81
252001002740;2017;Primaria;4.52
252001002740;2016;Primaria;4.06
252001002740;2015;Primaria;5.9
252001002740;2017;Secundaria;3.94
252001002740;2016;Secundaria;4.91
252001002740;2015;Secundaria;4.1
252001002740;2017;Media;4.12
252001002740;2016;Media;4.45
252001002740;2015;Media;4.75
252240000015;2017;Primaria;5.5
252240000015;2016;Primaria;4.76
252240000015;2015;Primaria;5.78
252240000015;2017;Secundaria;5.67
252240000015;2016;Secundaria;4.1
252240000015;2015;Secundaria;5.71
252240000015;2017;Media;7.49
252240000015;2016;Media;7.34
252240000015;2015;Media;6.92
152381000120;2017;Primaria;5.85
152381000120;2016;Primaria;6.63
152381000120;2015;Primaria;5.17
152381000120;2017;Secundaria;5.78
152381000120;2016;Secundaria;7.67
152381000120;2015;Secundaria;5.54
152381000120;2017;Media;7.5
152381000120;2016;Media;7.57
152381000120;2015;Media;4.08
252381000418;2017;Primaria;6.6
252381000418;2016;Primaria;6.64
252381000418;2015;Primaria;5.67
252381000418;2017;Secundaria;7.27
252381000418;2016;Secundaria;7.32
252381000418;2015;Secundaria;5.79
252381000418;2017;Media;4.44
252381000418;2016;Media;7.2
252381000418;2015;Media;7.3
252381000442;2017;Primaria;7.47
252381000442;2016;Primaria;4.49
252381000442;2015;Primaria;3.95
252381000442;2017;Secundaria;7.17
252381000442;2016;Secundaria;4.17
252381000442;2015;Secundaria;3.96
252381000442;2017;Media;4.49
252381000442;2016;Media;7.09
252381000442;2015;Media;4.31
252381000451;2017;Primaria;3.83
252381000451;2016;Primaria;5.99
252381000451;2015;Primaria;4.17
252381000451;2017;Secundaria;7.49
252381000451;2016;Secundaria;2.69
252381000451;2015;Secundaria;1.74
252381000451;2017;Media;4.16
252381000451;2016;Media;4.79
252381000451;2015;Media;3.87
252001003568;2017;Primaria;5.1
252001003568;2016;Primaria;
252001003568;2015;Primaria;1
252001003568;2017;Secundaria;4.69
252001003568;2016;Secundaria;5.8
252001003568;2015;Secundaria;3.13
252001003568;2017;Media;7.39
252001003568;2016;Media;6.61
252001003568;2015;Media;5.38
152788000019;2017;Primaria;5.54
152788000019;2016;Primaria;5.61
152788000019;2015;Primaria;1.7
152788000019;2017;Secundaria;4.61
152788000019;2016;Secundaria;4
152788000019;2015;Secundaria;3.64
152788000019;2017;Media;4.14
152788000019;2016;Media;6.21
152788000019;2015;Media;3.85
252788000099;2017;Primaria;6.51
252788000099;2016;Primaria;5.87
252788000099;2015;Primaria;7.65
252788000099;2017;Secundaria;5.69
252788000099;2016;Secundaria;4.19
252788000099;2015;Secundaria;5
252788000099;2017;Media;4.34
252788000099;2016;Media;7.32
252788000099;2015;Media;5.7
252788000587;2017;Primaria;6.91
252788000587;2016;Primaria;5.07
252788000587;2015;Primaria;5.01
252788000587;2017;Secundaria;7.68
252788000587;2016;Secundaria;7.5
252788000587;2015;Secundaria;4.22
252788000587;2017;Media;7.63
252788000587;2016;Media;7.49
252788000587;2015;Media;4.55
252788000595;2017;Primaria;
252788000595;2016;Primaria;4.38
252788000595;2015;Primaria;4.89
252788000595;2017;Secundaria;5.65
252788000595;2016;Secundaria;
252788000595;2015;Secundaria;5.49
252788000595;2017;Media;7.33
252788000595;2016;Media;4.1
252788000595;2015;Media;7.34
152885000015;2017;Primaria;6.49
152885000015;2016;Primaria;
152885000015;2015;Primaria;1.61
152885000015;2017;Secundaria;5.76
152885000015;2016;Secundaria;7.14
152885000015;2015;Secundaria;3.92
152885000015;2017;Media;4.71
152885000015;2016;Media;5.84
152885000015;2015;Media;4.02
252885000141;2017;Primaria;6.53
252885000141;2016;Primaria;6.18
252885000141;2015;Primaria;4.09
252885000141;2017;Secundaria;5.79
252885000141;2016;Secundaria;5.7
252885000141;2015;Secundaria;5.01
252885000141;2017;Media;4.37
252885000141;2016;Media;5.72
252885000141;2015;Media;4.06
252885000281;2017;Primaria;7.84
252885000281;2016;Primaria;4.73
252885000281;2015;Primaria;5.82
252885000281;2017;Secundaria;5.61
252885000281;2016;Secundaria;5.68
252885000281;2015;Secundaria;3.9
252885000281;2017;Media;4.25
252885000281;2016;Media;7.64
252885000281;2015;Media;7.03
152233000013;2017;Primaria;
152233000013;2016;Primaria;
152233000013;2015;Primaria;4.33
152233000013;2017;Secundaria;
152233000013;2016;Secundaria;5.65
152233000013;2015;Secundaria;6.48
152233000013;2017;Media;4.38
152233000013;2016;Media;7.3
152233000013;2015;Media;6.09
252233000212;2017;Primaria;5.72
252233000212;2016;Primaria;6.61
252233000212;2015;Primaria;5.07
252233000212;2017;Secundaria;7.37
252233000212;2016;Secundaria;7.88
252233000212;2015;Secundaria;3.99
252233000212;2017;Media;4.02
252233000212;2016;Media;4
252233000212;2015;Media;4.2
252233000425;2017;Primaria;6.8
252233000425;2016;Primaria;6.7
252233000425;2015;Primaria;1.59
252233000425;2017;Secundaria;7.12
252233000425;2016;Secundaria;5.49
252233000425;2015;Secundaria;5.31
252233000425;2017;Media;4.45
252233000425;2016;Media;4.1
252233000425;2015;Media;4.21
252256000139;2017;Primaria;
252256000139;2016;Primaria;4.37
252256000139;2015;Primaria;4.72
252256000139;2017;Secundaria;
252256000139;2016;Secundaria;4.38
252256000139;2015;Secundaria;4.39
252256000139;2017;Media;6.23
252256000139;2016;Media;4.07
252256000139;2015;Media;6.94
252256000180;2017;Primaria;
252256000180;2016;Primaria;5.68
252256000180;2015;Primaria;3.68
252256000180;2017;Secundaria;
252256000180;2016;Secundaria;7.09
252256000180;2015;Secundaria;5.22
252256000180;2017;Media;7.71
252256000180;2016;Media;7.41
252256000180;2015;Media;5.01
252256000210;2017;Primaria;5.13
252256000210;2016;Primaria;6.25
252256000210;2015;Primaria;3.95
252256000210;2017;Secundaria;5.94
252256000210;2016;Secundaria;
252256000210;2015;Secundaria;1
252256000210;2017;Media;5.53
252256000210;2016;Media;4.1
252256000210;2015;Media;4.57
252256000619;2017;Primaria;3.54
252256000619;2016;Primaria;4.1
252256000619;2015;Primaria;3.67
252256000619;2017;Secundaria;7.01
252256000619;2016;Secundaria;3.78
252256000619;2015;Secundaria;4.13
252256000619;2017;Media;3.64
252256000619;2016;Media;4.35
252256000619;2015;Media;7.09
152405000207;2017;Primaria;3.91
152405000207;2016;Primaria;4.76
152405000207;2015;Primaria;4.66
152405000207;2017;Secundaria;3.22
152405000207;2016;Secundaria;6.06
152405000207;2015;Secundaria;3.61
152405000207;2017;Media;4.22
152405000207;2016;Media;4.18
152405000207;2015;Media;4.87
152405000631;2017;Primaria;6.52
152405000631;2016;Primaria;3.85
152405000631;2015;Primaria;1.66
152405000631;2017;Secundaria;4.83
152405000631;2016;Secundaria;4.01
152405000631;2015;Secundaria;3.59
152405000631;2017;Media;3.96
152405000631;2016;Media;5.86
152405000631;2015;Media;3.89
252405000651;2017;Primaria;3.66
252405000651;2016;Primaria;5.58
252405000651;2015;Primaria;4.19
252405000651;2017;Secundaria;5.64
252405000651;2016;Secundaria;
252405000651;2015;Secundaria;2.79
252405000651;2017;Media;4.05
252405000651;2016;Media;6.01
252405000651;2015;Media;1.89
152540000136;2017;Primaria;5.73
152540000136;2016;Primaria;
152540000136;2015;Primaria;5.64
152540000136;2017;Secundaria;7.44
152540000136;2016;Secundaria;4.47
152540000136;2015;Secundaria;7.16
152540000136;2017;Media;7.84
152540000136;2016;Media;7.48
152540000136;2015;Media;5.49
252540000092;2017;Primaria;6.22
252540000092;2016;Primaria;5.1
252540000092;2015;Primaria;5
252540000092;2017;Secundaria;5.49
252540000092;2016;Secundaria;3.66
252540000092;2015;Secundaria;4.67
252540000092;2017;Media;4.33
252540000092;2016;Media;4.52
252540000092;2015;Media;4.18
252540000602;2017;Primaria;4.79
252540000602;2016;Primaria;3.92
252540000602;2015;Primaria;1.88
252540000602;2017;Secundaria;7.27
252540000602;2016;Secundaria;5.64
252540000602;2015;Secundaria;7.45
252540000602;2017;Media;8.07
252540000602;2016;Media;7.55
252540000602;2015;Media;6.25
252540000751;2017;Primaria;6.03
252540000751;2016;Primaria;4.3
252540000751;2015;Primaria;4.77
252540000751;2017;Secundaria;7.35
252540000751;2016;Secundaria;2.49
252540000751;2015;Secundaria;4.67
252540000751;2017;Media;7.4
252540000751;2016;Media;7.25
252540000751;2015;Media;5.06
152786000160;2017;Primaria;5.85
152786000160;2016;Primaria;5.9
152786000160;2015;Primaria;1.65
152786000160;2017;Secundaria;4.84
152786000160;2016;Secundaria;5.6
152786000160;2015;Secundaria;4.76
152786000160;2017;Media;4.7
152786000160;2016;Media;7.37
152786000160;2015;Media;3.87
252786000041;2017;Primaria;4.31
252786000041;2016;Primaria;4.92
252786000041;2015;Primaria;5.97
252786000041;2017;Secundaria;7.52
252786000041;2016;Secundaria;
252786000041;2015;Secundaria;6.82
252786000041;2017;Media;7.84
252786000041;2016;Media;4.85
252786000041;2015;Media;4.13
252786000156;2017;Primaria;5.41
252786000156;2016;Primaria;3.57
252786000156;2015;Primaria;5.65
252786000156;2017;Secundaria;5.09
252786000156;2016;Secundaria;3.57
252786000156;2015;Secundaria;4.29
252786000156;2017;Media;6.26
252786000156;2016;Media;4.53
252786000156;2015;Media;2.02
252786000504;2017;Primaria;4.09
252786000504;2016;Primaria;2.71
252786000504;2015;Primaria;5.02
252786000504;2017;Secundaria;
252786000504;2016;Secundaria;
252786000504;2015;Secundaria;3.87
252786000504;2017;Media;7.48
252786000504;2016;Media;7.22
252786000504;2015;Media;7.18
252786000521;2017;Primaria;5.88
252786000521;2016;Primaria;4.9
252786000521;2015;Primaria;5.64
252786000521;2017;Secundaria;4
252786000521;2016;Secundaria;7.19
252786000521;2015;Secundaria;5.83
252786000521;2017;Media;5.43
252786000521;2016;Media;4.1
252786000521;2015;Media;5.79
252786000709;2017;Primaria;6.54
252786000709;2016;Primaria;4.12
252786000709;2015;Primaria;1.72
252786000709;2017;Secundaria;7.16
252786000709;2016;Secundaria;7.54
252786000709;2015;Secundaria;7.2
252786000709;2017;Media;5
252786000709;2016;Media;4.54
252786000709;2015;Media;4.22
152022000084;2017;Primaria;6.96
152022000084;2016;Primaria;6.93
152022000084;2015;Primaria;1.77
152022000084;2017;Secundaria;5.8
152022000084;2016;Secundaria;5.67
152022000084;2015;Secundaria;6.03
152022000084;2017;Media;7.43
152022000084;2016;Media;7.5
152022000084;2015;Media;7.42
152210000261;2017;Primaria;5.69
152210000261;2016;Primaria;7.52
152210000261;2015;Primaria;1.7
152210000261;2017;Secundaria;7.48
152210000261;2016;Secundaria;6.11
152210000261;2015;Secundaria;7.75
152210000261;2017;Media;7.71
152210000261;2016;Media;7.18
152210000261;2015;Media;4.78
252210000096;2017;Primaria;5.05
252210000096;2016;Primaria;8.23
252210000096;2015;Primaria;3.82
252210000096;2017;Secundaria;5.79
252210000096;2016;Secundaria;5.84
252210000096;2015;Secundaria;3.07
252210000096;2017;Media;4.24
252210000096;2016;Media;7.03
252210000096;2015;Media;5.26
152215000138;2017;Primaria;4.63
152215000138;2016;Primaria;4.23
152215000138;2015;Primaria;5.28
152215000138;2017;Secundaria;4.44
152215000138;2016;Secundaria;4.1
152215000138;2015;Secundaria;5.69
152215000138;2017;Media;4.47
152215000138;2016;Media;4.35
152215000138;2015;Media;4.69
252215000035;2017;Primaria;4.92
252215000035;2016;Primaria;5.12
252215000035;2015;Primaria;7.23
252215000035;2017;Secundaria;7.14
252215000035;2016;Secundaria;5.65
252215000035;2015;Secundaria;7.74
252215000035;2017;Media;7.47
252215000035;2016;Media;7.45
252215000035;2015;Media;7.42
252215000451;2017;Primaria;5.65
252215000451;2016;Primaria;5.17
252215000451;2015;Primaria;3.21
252215000451;2017;Secundaria;7.22
252215000451;2016;Secundaria;7.29
252215000451;2015;Secundaria;4.05
252215000451;2017;Media;4.07
252215000451;2016;Media;4.51
252215000451;2015;Media;7.28
252215000469;2017;Primaria;5.71
252215000469;2016;Primaria;3.94
252215000469;2015;Primaria;5.15
252215000469;2017;Secundaria;
252215000469;2016;Secundaria;7.18
252215000469;2015;Secundaria;4
252215000469;2017;Media;5.92
252215000469;2016;Media;4.25
252215000469;2015;Media;4.1
;;;
;;;
;;;
;;;
;;;
;;;
;;;
;;;
;;;
1.52224E+11;2017;Primaria;4.61
1.52224E+11;2016;Primaria;5.12
1.52224E+11;2015;Primaria;5.4
1.52224E+11;2017;Secundaria;5.7
1.52224E+11;2016;Secundaria;5.16
1.52224E+11;2015;Secundaria;5.46
1.52224E+11;2017;Media;7.58
1.52224E+11;2016;Media;4.21
1.52224E+11;2015;Media;6.95
2.52224E+11;2017;Primaria;5.55
2.52224E+11;2016;Primaria;3.92
2.52224E+11;2015;Primaria;6.56
2.52224E+11;2017;Secundaria;5.16
2.52224E+11;2016;Secundaria;3.71
2.52224E+11;2015;Secundaria;4.32
2.52224E+11;2017;Media;4.73
2.52224E+11;2016;Media;4.08
2.52224E+11;2015;Media;5.94
1.52227E+11;2017;Primaria;4.06
1.52227E+11;2016;Primaria;5.99
1.52227E+11;2015;Primaria;7.45
1.52227E+11;2017;Secundaria;6.46
1.52227E+11;2016;Secundaria;
1.52227E+11;2015;Secundaria;3.08
1.52227E+11;2017;Media;4.37
1.52227E+11;2016;Media;7.41
1.52227E+11;2015;Media;4.75
2.52227E+11;2017;Primaria;6.92
2.52227E+11;2016;Primaria;4.69
2.52227E+11;2015;Primaria;6.61
2.52227E+11;2017;Secundaria;6.96
2.52227E+11;2016;Secundaria;3.64
2.52227E+11;2015;Secundaria;4.2
2.52227E+11;2017;Media;7.38
2.52227E+11;2016;Media;7.32
2.52227E+11;2015;Media;3.92
2.52227E+11;2017;Primaria;8.48
2.52227E+11;2016;Primaria;7.61
2.52227E+11;2015;Primaria;1
2.52227E+11;2017;Secundaria;6.75
2.52227E+11;2016;Secundaria;2.66
2.52227E+11;2015;Secundaria;1.68
2.52227E+11;2017;Media;3.88
2.52227E+11;2016;Media;5.87
2.52227E+11;2015;Media;4.7
2.52227E+11;2017;Primaria;6.18
2.52227E+11;2016;Primaria;7.11
2.52227E+11;2015;Primaria;4.23
2.52227E+11;2017;Secundaria;5.74
2.52227E+11;2016;Secundaria;7.17
2.52227E+11;2015;Secundaria;7.24
2.52227E+11;2017;Media;7.85
2.52227E+11;2016;Media;7.61
2.52227E+11;2015;Media;4.08
2.52227E+11;2017;Primaria;5.14
2.52227E+11;2016;Primaria;3.85
2.52227E+11;2015;Primaria;1.59
2.52227E+11;2017;Secundaria;3.54
2.52227E+11;2016;Secundaria;3.74
2.52227E+11;2015;Secundaria;1.42
2.52227E+11;2017;Media;4.07
2.52227E+11;2016;Media;4.37
2.52227E+11;2015;Media;4.77
2.52227E+11;2017;Primaria;5.02
2.52227E+11;2016;Primaria;4.9
2.52227E+11;2015;Primaria;1.4
2.52227E+11;2017;Secundaria;4.81
2.52227E+11;2016;Secundaria;3.54
2.52227E+11;2015;Secundaria;1.48
2.52227E+11;2017;Media;4.24
2.52227E+11;2016;Media;7.48
2.52227E+11;2015;Media;3.36
2.52227E+11;2017;Primaria;6.4
2.52227E+11;2016;Primaria;5.22
2.52227E+11;2015;Primaria;3.94
2.52227E+11;2017;Secundaria;7.25
2.52227E+11;2016;Secundaria;4.53
2.52227E+11;2015;Secundaria;4.23
2.52227E+11;2017;Media;7.48
2.52227E+11;2016;Media;7.53
2.52227E+11;2015;Media;4.27
2.52227E+11;2017;Primaria;4.33
2.52227E+11;2016;Primaria;5.06
2.52227E+11;2015;Primaria;4.62
2.52227E+11;2017;Secundaria;4.89
2.52227E+11;2016;Secundaria;4.02
2.52227E+11;2015;Secundaria;3.88
2.52227E+11;2017;Media;6.48
2.52227E+11;2016;Media;3.8
2.52227E+11;2015;Media;4.65
2.52227E+11;2017;Primaria;6.89
2.52227E+11;2016;Primaria;4.74
2.52227E+11;2015;Primaria;4.18
2.52227E+11;2017;Secundaria;3.87
2.52227E+11;2016;Secundaria;4.8
2.52227E+11;2015;Secundaria;5.59
2.52227E+11;2017;Media;6.4
2.52227E+11;2016;Media;4.09
2.52227E+11;2015;Media;3.95
3.52287E+11;2017;Primaria;5.9
3.52287E+11;2016;Primaria;5.27
3.52287E+11;2015;Primaria;4.87
3.52287E+11;2017;Secundaria;7.32
3.52287E+11;2016;Secundaria;5.58
3.52287E+11;2015;Secundaria;6.45
3.52287E+11;2017;Media;4.44
3.52287E+11;2016;Media;5.16
3.52287E+11;2015;Media;4.18
1.52317E+11;2017;Primaria;6.91
1.52317E+11;2016;Primaria;5.25
1.52317E+11;2015;Primaria;5.78
1.52317E+11;2017;Secundaria;7.35
1.52317E+11;2016;Secundaria;7.27
1.52317E+11;2015;Secundaria;5.77
1.52317E+11;2017;Media;7.66
1.52317E+11;2016;Media;7.63
1.52317E+11;2015;Media;6.91
2.52317E+11;2017;Primaria;5.37
2.52317E+11;2016;Primaria;4.16
2.52317E+11;2015;Primaria;6.1
2.52317E+11;2017;Secundaria;6.27
2.52317E+11;2016;Secundaria;4.46
2.52317E+11;2015;Secundaria;3.87
2.52317E+11;2017;Media;7.27
2.52317E+11;2016;Media;7.45
2.52317E+11;2015;Media;4.85
2.52317E+11;2017;Primaria;7.67
2.52317E+11;2016;Primaria;4.74
2.52317E+11;2015;Primaria;5.23
2.52317E+11;2017;Secundaria;5.36
2.52317E+11;2016;Secundaria;3.71
2.52317E+11;2015;Secundaria;4.47
2.52317E+11;2017;Media;4.2
2.52317E+11;2016;Media;7.2
2.52317E+11;2015;Media;7.08
2.52317E+11;2017;Primaria;5.63
2.52317E+11;2016;Primaria;7.45
2.52317E+11;2015;Primaria;5.75
2.52317E+11;2017;Secundaria;4.06
2.52317E+11;2016;Secundaria;6.2
2.52317E+11;2015;Secundaria;3.83
2.52317E+11;2017;Media;7.39
2.52317E+11;2016;Media;7.2
2.52317E+11;2015;Media;8.02
1.52323E+11;2017;Primaria;5.78
1.52323E+11;2016;Primaria;5.87
1.52323E+11;2015;Primaria;3.88
1.52323E+11;2017;Secundaria;6.02
1.52323E+11;2016;Secundaria;7.59
1.52323E+11;2015;Secundaria;7.32
1.52323E+11;2017;Media;7.96
1.52323E+11;2016;Media;7.73
1.52323E+11;2015;Media;7.33
1.52323E+11;2017;Primaria;7.15
1.52323E+11;2016;Primaria;4.4
1.52323E+11;2015;Primaria;6.52
1.52323E+11;2017;Secundaria;7.27
1.52323E+11;2016;Secundaria;5.62
1.52323E+11;2015;Secundaria;7.49
1.52323E+11;2017;Media;7.94
1.52323E+11;2016;Media;7.55
1.52323E+11;2015;Media;7.22
2.52323E+11;2017;Primaria;5.86
2.52323E+11;2016;Primaria;5.94
2.52323E+11;2015;Primaria;4.36
2.52323E+11;2017;Secundaria;8.04
2.52323E+11;2016;Secundaria;5.84
2.52323E+11;2015;Secundaria;8.29
2.52323E+11;2017;Media;7.79
2.52323E+11;2016;Media;7.65
2.52323E+11;2015;Media;8.14
2.52352E+11;2017;Primaria;6.96
2.52352E+11;2016;Primaria;4.93
2.52352E+11;2015;Primaria;5.44
2.52352E+11;2017;Secundaria;4.85
2.52352E+11;2016;Secundaria;4.12
2.52352E+11;2015;Secundaria;4.07
2.52352E+11;2017;Media;7.41
2.52352E+11;2016;Media;7.46
2.52352E+11;2015;Media;4.2
2.52352E+11;2017;Primaria;6.36
2.52352E+11;2016;Primaria;6.52
2.52352E+11;2015;Primaria;6.91
2.52352E+11;2017;Secundaria;7.24
2.52352E+11;2016;Secundaria;4.79
2.52352E+11;2015;Secundaria;4.08
2.52352E+11;2017;Media;4.32
2.52352E+11;2016;Media;5.52
2.52352E+11;2015;Media;3.73
2.52352E+11;2017;Primaria;7.49
2.52352E+11;2016;Primaria;8.23
2.52352E+11;2015;Primaria;6.78
2.52352E+11;2017;Secundaria;6.24
2.52352E+11;2016;Secundaria;5.88
2.52352E+11;2015;Secundaria;1.72
2.52352E+11;2017;Media;4.45
2.52352E+11;2016;Media;7.72
2.52352E+11;2015;Media;5.88
1.5256E+11;2017;Primaria;5.11
1.5256E+11;2016;Primaria;6.57
1.5256E+11;2015;Primaria;1.62
1.5256E+11;2017;Secundaria;4.26
1.5256E+11;2016;Secundaria;7.49
1.5256E+11;2015;Secundaria;7.15
1.5256E+11;2017;Media;7.51
1.5256E+11;2016;Media;7.44
1.5256E+11;2015;Media;7.61
2.5256E+11;2017;Primaria;5.86
2.5256E+11;2016;Primaria;5.98
2.5256E+11;2015;Primaria;7.44
2.5256E+11;2017;Secundaria;6.97
2.5256E+11;2016;Secundaria;7.73
2.5256E+11;2015;Secundaria;7.95
2.5256E+11;2017;Media;7.93
2.5256E+11;2016;Media;7.46
2.5256E+11;2015;Media;7.3
2.5256E+11;2017;Primaria;5.79
2.5256E+11;2016;Primaria;6.83
2.5256E+11;2015;Primaria;4.44
2.5256E+11;2017;Secundaria;7.44
2.5256E+11;2016;Secundaria;7.67
2.5256E+11;2015;Secundaria;7.2
2.5256E+11;2017;Media;7.32
2.5256E+11;2016;Media;4.38
2.5256E+11;2015;Media;6.6
2.5256E+11;2017;Primaria;7.52
2.5256E+11;2016;Primaria;8
2.5256E+11;2015;Primaria;6.58
2.5256E+11;2017;Secundaria;5.76
2.5256E+11;2016;Secundaria;5.66
2.5256E+11;2015;Secundaria;1.66
2.5256E+11;2017;Media;3.96
2.5256E+11;2016;Media;4.21
2.5256E+11;2015;Media;7.32
2.5256E+11;2017;Primaria;7.58
2.5256E+11;2016;Primaria;5.84
2.5256E+11;2015;Primaria;6.58
2.5256E+11;2017;Secundaria;7.55
2.5256E+11;2016;Secundaria;
2.5256E+11;2015;Secundaria;1.59
2.5256E+11;2017;Media;7.49
2.5256E+11;2016;Media;8
2.5256E+11;2015;Media;7.36
1.52573E+11;2017;Primaria;5.76
1.52573E+11;2016;Primaria;5.89
1.52573E+11;2015;Primaria;6.71
1.52573E+11;2017;Secundaria;7.62
1.52573E+11;2016;Secundaria;
1.52573E+11;2015;Secundaria;7.5
1.52573E+11;2017;Media;7.66
1.52573E+11;2016;Media;7.9
1.52573E+11;2015;Media;7.19
2.52573E+11;2017;Primaria;6.35
2.52573E+11;2016;Primaria;5.78
2.52573E+11;2015;Primaria;5.81
2.52573E+11;2017;Secundaria;5.61
2.52573E+11;2016;Secundaria;5.62
2.52573E+11;2015;Secundaria;1.73
2.52573E+11;2017;Media;4.79
2.52573E+11;2016;Media;4.31
2.52573E+11;2015;Media;7.92
2.52573E+11;2017;Primaria;
2.52573E+11;2016;Primaria;7.56
2.52573E+11;2015;Primaria;3.62
2.52573E+11;2017;Secundaria;
2.52573E+11;2016;Secundaria;
2.52573E+11;2015;Secundaria;2.87
2.52573E+11;2017;Media;6.91
2.52573E+11;2016;Media;7.49
2.52573E+11;2015;Media;7.01
1.52585E+11;2017;Primaria;6.64
1.52585E+11;2016;Primaria;7.91
1.52585E+11;2015;Primaria;5.98
1.52585E+11;2017;Secundaria;7.42
1.52585E+11;2016;Secundaria;7.5
1.52585E+11;2015;Secundaria;7.42
1.52585E+11;2017;Media;7.68
1.52585E+11;2016;Media;7.63
1.52585E+11;2015;Media;7.44
1.52585E+11;2017;Primaria;7.13
1.52585E+11;2016;Primaria;6.6
1.52585E+11;2015;Primaria;3.78
1.52585E+11;2017;Secundaria;7.37
1.52585E+11;2016;Secundaria;7.38
1.52585E+11;2015;Secundaria;7.35
1.52585E+11;2017;Media;7.69
1.52585E+11;2016;Media;7.78
1.52585E+11;2015;Media;7.22
1.52585E+11;2017;Primaria;8.33
1.52585E+11;2016;Primaria;8.66
1.52585E+11;2015;Primaria;2.29
1.52585E+11;2017;Secundaria;7.27
1.52585E+11;2016;Secundaria;6.05
1.52585E+11;2015;Secundaria;5.41
1.52585E+11;2017;Media;7.37
1.52585E+11;2016;Media;7.56
1.52585E+11;2015;Media;7.12
2.52585E+11;2017;Primaria;6.75
2.52585E+11;2016;Primaria;7.08
2.52585E+11;2015;Primaria;7.49
2.52585E+11;2017;Secundaria;5.8
2.52585E+11;2016;Secundaria;7.23
2.52585E+11;2015;Secundaria;3.89
2.52585E+11;2017;Media;7.49
2.52585E+11;2016;Media;7.58
2.52585E+11;2015;Media;7.32
2.5226E+11;2017;Primaria;3.98
2.5226E+11;2016;Primaria;6.13
2.5226E+11;2015;Primaria;4.8
2.5226E+11;2017;Secundaria;5.68
2.5226E+11;2016;Secundaria;5.71
2.5226E+11;2015;Secundaria;7.14
2.5226E+11;2017;Media;7.55
2.5226E+11;2016;Media;7.37
2.5226E+11;2015;Media;5.74
2.5226E+11;2017;Primaria;4.45
2.5226E+11;2016;Primaria;4.81
2.5226E+11;2015;Primaria;3.95
2.5226E+11;2017;Secundaria;5.7
2.5226E+11;2016;Secundaria;
2.5226E+11;2015;Secundaria;5.34
2.5226E+11;2017;Media;7.37
2.5226E+11;2016;Media;4.36
2.5226E+11;2015;Media;7.25
1.5226E+11;2017;Primaria;4.22
1.5226E+11;2016;Primaria;5.76
1.5226E+11;2015;Primaria;4.62
1.5226E+11;2017;Secundaria;5.74
1.5226E+11;2016;Secundaria;3.7
1.5226E+11;2015;Secundaria;4.58
1.5226E+11;2017;Media;4.35
1.5226E+11;2016;Media;4.5
1.5226E+11;2015;Media;4.56
1.5226E+11;2017;Primaria;4.81
1.5226E+11;2016;Primaria;6.37
1.5226E+11;2015;Primaria;2.98
1.5226E+11;2017;Secundaria;4.13
1.5226E+11;2016;Secundaria;
1.5226E+11;2015;Secundaria;8.37
1.5226E+11;2017;Media;7.8
1.5226E+11;2016;Media;7.46
1.5226E+11;2015;Media;4.31
2.5226E+11;2017;Primaria;5.44
2.5226E+11;2016;Primaria;6.52
2.5226E+11;2015;Primaria;4.71
2.5226E+11;2017;Secundaria;6.28
2.5226E+11;2016;Secundaria;5.43
2.5226E+11;2015;Secundaria;1.69
2.5226E+11;2017;Media;4.22
2.5226E+11;2016;Media;4.19
2.5226E+11;2015;Media;7.29
2.52385E+11;2017;Primaria;7.36
2.52385E+11;2016;Primaria;4.44
2.52385E+11;2015;Primaria;3.17
2.52385E+11;2017;Secundaria;4.86
2.52385E+11;2016;Secundaria;5.54
2.52385E+11;2015;Secundaria;3.19
2.52385E+11;2017;Media;4.11
2.52385E+11;2016;Media;4.26
2.52385E+11;2015;Media;5.4
2.52418E+11;2017;Primaria;5.69
2.52418E+11;2016;Primaria;4.15
2.52418E+11;2015;Primaria;4.3
2.52418E+11;2017;Secundaria;4.6
2.52418E+11;2016;Secundaria;4.05
2.52418E+11;2015;Secundaria;5.54
2.52418E+11;2017;Media;5.4
2.52418E+11;2016;Media;4.2
2.52418E+11;2015;Media;7.39
1.52418E+11;2017;Primaria;6.63
1.52418E+11;2016;Primaria;
1.52418E+11;2015;Primaria;2.85
1.52418E+11;2017;Secundaria;7.26
1.52418E+11;2016;Secundaria;
1.52418E+11;2015;Secundaria;5.59
1.52418E+11;2017;Media;7.72
1.52418E+11;2016;Media;7.56
1.52418E+11;2015;Media;7.21
2.52418E+11;2017;Primaria;5.04
2.52418E+11;2016;Primaria;5.54
2.52418E+11;2015;Primaria;5.81
2.52418E+11;2017;Secundaria;5.75
2.52418E+11;2016;Secundaria;5.53
2.52418E+11;2015;Secundaria;6.89
2.52418E+11;2017;Media;5.1
2.52418E+11;2016;Media;4.09
2.52418E+11;2015;Media;4.15
2.52418E+11;2017;Primaria;4.45
2.52418E+11;2016;Primaria;7.39
2.52418E+11;2015;Primaria;5.26
2.52418E+11;2017;Secundaria;5.51
2.52418E+11;2016;Secundaria;3.84
2.52418E+11;2015;Secundaria;5.69
2.52418E+11;2017;Media;7.11
2.52418E+11;2016;Media;3.92
2.52418E+11;2015;Media;7.19
2.52418E+11;2017;Primaria;5.57
2.52418E+11;2016;Primaria;7.2
2.52418E+11;2015;Primaria;3.64
2.52418E+11;2017;Secundaria;5.77
2.52418E+11;2016;Secundaria;3.61
2.52418E+11;2015;Secundaria;3.66
2.52418E+11;2017;Media;5.64
2.52418E+11;2016;Media;3.63
2.52418E+11;2015;Media;3.67
1.52051E+11;2017;Primaria;6.14
1.52051E+11;2016;Primaria;2.84
1.52051E+11;2015;Primaria;2.84
1.52051E+11;2017;Secundaria;5.51
1.52051E+11;2016;Secundaria;3.93
1.52051E+11;2015;Secundaria;4.68
1.52051E+11;2017;Media;4.39
1.52051E+11;2016;Media;4.86
1.52051E+11;2015;Media;2.19
2.52051E+11;2017;Primaria;6.2
2.52051E+11;2016;Primaria;4.89
2.52051E+11;2015;Primaria;7.5
2.52051E+11;2017;Secundaria;4.63
2.52051E+11;2016;Secundaria;3.77
2.52051E+11;2015;Secundaria;5.74
2.52051E+11;2017;Media;4.35
2.52051E+11;2016;Media;4.65
2.52051E+11;2015;Media;6.24
2.52051E+11;2017;Primaria;4.59
2.52051E+11;2016;Primaria;6.1
2.52051E+11;2015;Primaria;3.7
2.52051E+11;2017;Secundaria;5.75
2.52051E+11;2016;Secundaria;3.76
2.52051E+11;2015;Secundaria;4.03
2.52051E+11;2017;Media;5.44
2.52051E+11;2016;Media;4.63
2.52051E+11;2015;Media;3.82
1.5211E+11;2017;Primaria;7.4
1.5211E+11;2016;Primaria;5.63
1.5211E+11;2015;Primaria;6.74
1.5211E+11;2017;Secundaria;5.9
1.5211E+11;2016;Secundaria;5.68
1.5211E+11;2015;Secundaria;7.23
1.5211E+11;2017;Media;7.61
1.5211E+11;2016;Media;7.44
1.5211E+11;2015;Media;7.2
2.5211E+11;2017;Primaria;5.41
2.5211E+11;2016;Primaria;4.92
2.5211E+11;2015;Primaria;7.06
2.5211E+11;2017;Secundaria;5.77
2.5211E+11;2016;Secundaria;4.03
2.5211E+11;2015;Secundaria;3.87
2.5211E+11;2017;Media;7.79
2.5211E+11;2016;Media;4.06
2.5211E+11;2015;Media;2.21
2.5211E+11;2017;Primaria;7.35
2.5211E+11;2016;Primaria;8.32
2.5211E+11;2015;Primaria;7.74
2.5211E+11;2017;Secundaria;2.75
2.5211E+11;2016;Secundaria;7.45
2.5211E+11;2015;Secundaria;1.69
2.5211E+11;2017;Media;4.32
2.5211E+11;2016;Media;7.29
2.5211E+11;2015;Media;3.85
2.5211E+11;2017;Primaria;5.65
2.5211E+11;2016;Primaria;4.95
2.5211E+11;2015;Primaria;5.48
2.5211E+11;2017;Secundaria;4.38
2.5211E+11;2016;Secundaria;5.67
2.5211E+11;2015;Secundaria;5.53
2.5211E+11;2017;Media;4.41
2.5211E+11;2016;Media;4.31
2.5211E+11;2015;Media;7.01
2.5211E+11;2017;Primaria;6.21
2.5211E+11;2016;Primaria;4.69
2.5211E+11;2015;Primaria;5.72
2.5211E+11;2017;Secundaria;3.9
2.5211E+11;2016;Secundaria;
2.5211E+11;2015;Secundaria;5.55
2.5211E+11;2017;Media;4.39
2.5211E+11;2016;Media;4.09
2.5211E+11;2015;Media;7.15
2.5211E+11;2017;Primaria;5.8
2.5211E+11;2016;Primaria;7.5
2.5211E+11;2015;Primaria;3.87
2.5211E+11;2017;Secundaria;6.02
2.5211E+11;2016;Secundaria;4.03
2.5211E+11;2015;Secundaria;7.22
2.5211E+11;2017;Media;7.76
2.5211E+11;2016;Media;7.5
2.5211E+11;2015;Media;7.38
2.5211E+11;2017;Primaria;3.96
2.5211E+11;2016;Primaria;4.11
2.5211E+11;2015;Primaria;6.87
2.5211E+11;2017;Secundaria;5.53
2.5211E+11;2016;Secundaria;7.17
2.5211E+11;2015;Secundaria;7.36
2.5211E+11;2017;Media;7.61
2.5211E+11;2016;Media;4.29
2.5211E+11;2015;Media;7.19
1.52399E+11;2017;Primaria;6.78
1.52399E+11;2016;Primaria;7.71
1.52399E+11;2015;Primaria;6.66
1.52399E+11;2017;Secundaria;7.46
1.52399E+11;2016;Secundaria;7.55
1.52399E+11;2015;Secundaria;7.43
1.52399E+11;2017;Media;8.16
1.52399E+11;2016;Media;7.64
1.52399E+11;2015;Media;7.47
1.52399E+11;2017;Primaria;5.91
1.52399E+11;2016;Primaria;6.57
1.52399E+11;2015;Primaria;5.99
1.52399E+11;2017;Secundaria;4.15
1.52399E+11;2016;Secundaria;4.41
1.52399E+11;2015;Secundaria;3.99
1.52399E+11;2017;Media;4.39
1.52399E+11;2016;Media;7.43
1.52399E+11;2015;Media;4
2.52399E+11;2017;Primaria;5.76
2.52399E+11;2016;Primaria;7.04
2.52399E+11;2015;Primaria;3.71
2.52399E+11;2017;Secundaria;4.18
2.52399E+11;2016;Secundaria;4.22
2.52399E+11;2015;Secundaria;7.03
2.52399E+11;2017;Media;4.2
2.52399E+11;2016;Media;7.52
2.52399E+11;2015;Media;3.95
2.52399E+11;2017;Primaria;7.01
2.52399E+11;2016;Primaria;7.84
2.52399E+11;2015;Primaria;2.78
2.52399E+11;2017;Secundaria;4.18
2.52399E+11;2016;Secundaria;4.66
2.52399E+11;2015;Secundaria;5.38
2.52399E+11;2017;Media;5.12
2.52399E+11;2016;Media;4.2
2.52399E+11;2015;Media;4.09
1.52687E+11;2017;Primaria;5.67
1.52687E+11;2016;Primaria;
1.52687E+11;2015;Primaria;6.01
1.52687E+11;2017;Secundaria;7.22
1.52687E+11;2016;Secundaria;4.18
1.52687E+11;2015;Secundaria;7.22
1.52687E+11;2017;Media;7.46
1.52687E+11;2016;Media;7.56
1.52687E+11;2015;Media;4.22
2.52687E+11;2017;Primaria;5.13
2.52687E+11;2016;Primaria;6.34
2.52687E+11;2015;Primaria;5.3
2.52687E+11;2017;Secundaria;4.05
2.52687E+11;2016;Secundaria;5.77
2.52687E+11;2015;Secundaria;7.21
2.52687E+11;2017;Media;4.21
2.52687E+11;2016;Media;5.75
2.52687E+11;2015;Media;4.12
2.52687E+11;2017;Primaria;6.21
2.52687E+11;2016;Primaria;6.71
2.52687E+11;2015;Primaria;5.43
2.52687E+11;2017;Secundaria;7.75
2.52687E+11;2016;Secundaria;2.77
2.52687E+11;2015;Secundaria;4.75
2.52687E+11;2017;Media;4.46
2.52687E+11;2016;Media;4.05
2.52687E+11;2015;Media;3.21
2.52687E+11;2017;Primaria;3.97
2.52687E+11;2016;Primaria;6.69
2.52687E+11;2015;Primaria;7.28
2.52687E+11;2017;Secundaria;5.41
2.52687E+11;2016;Secundaria;
2.52687E+11;2015;Secundaria;1.62
2.52687E+11;2017;Media;7.4
2.52687E+11;2016;Media;4.8
2.52687E+11;2015;Media;4.02
2.52687E+11;2017;Primaria;7.54
2.52687E+11;2016;Primaria;5.78
2.52687E+11;2015;Primaria;5.97
2.52687E+11;2017;Secundaria;7.23
2.52687E+11;2016;Secundaria;7.3
2.52687E+11;2015;Secundaria;1.68
2.52687E+11;2017;Media;7.52
2.52687E+11;2016;Media;7.63
2.52687E+11;2015;Media;7
2.52687E+11;2017;Primaria;5.76
2.52687E+11;2016;Primaria;5.74
2.52687E+11;2015;Primaria;1.72
2.52687E+11;2017;Secundaria;4.11
2.52687E+11;2016;Secundaria;4.15
2.52687E+11;2015;Secundaria;4.65
2.52687E+11;2017;Media;7.53
2.52687E+11;2016;Media;4.13
2.52687E+11;2015;Media;5.46
2.52687E+11;2017;Primaria;4.22
2.52687E+11;2016;Primaria;7.15
2.52687E+11;2015;Primaria;4.86
2.52687E+11;2017;Secundaria;5.54
2.52687E+11;2016;Secundaria;5.96
2.52687E+11;2015;Secundaria;4.68
2.52687E+11;2017;Media;4.87
2.52687E+11;2016;Media;4.18
2.52687E+11;2015;Media;5.67
2.52051E+11;2017;Primaria;5.64
2.52051E+11;2016;Primaria;4.12
2.52051E+11;2015;Primaria;3.79
2.52051E+11;2017;Secundaria;4.98
2.52051E+11;2016;Secundaria;4.31
2.52051E+11;2015;Secundaria;3.73
2.52051E+11;2017;Media;7.52
2.52051E+11;2016;Media;7.31
2.52051E+11;2015;Media;4.03
1.52036E+11;2017;Primaria;6.67
1.52036E+11;2016;Primaria;7
1.52036E+11;2015;Primaria;5.34
1.52036E+11;2017;Secundaria;7.33
1.52036E+11;2016;Secundaria;7.33
1.52036E+11;2015;Secundaria;7.44
1.52036E+11;2017;Media;7.5
1.52036E+11;2016;Media;7.62
1.52036E+11;2015;Media;4.3
1.52036E+11;2017;Primaria;6.39
1.52036E+11;2016;Primaria;7.03
1.52036E+11;2015;Primaria;6.68
1.52036E+11;2017;Secundaria;7.53
1.52036E+11;2016;Secundaria;7.53
1.52036E+11;2015;Secundaria;7.31
1.52036E+11;2017;Media;7.43
1.52036E+11;2016;Media;7.29
1.52036E+11;2015;Media;7.36
2.52036E+11;2017;Primaria;6.11
2.52036E+11;2016;Primaria;5.38
2.52036E+11;2015;Primaria;5.57
2.52036E+11;2017;Secundaria;2.82
2.52036E+11;2016;Secundaria;2.82
2.52036E+11;2015;Secundaria;6.26
2.52036E+11;2017;Media;
2.52036E+11;2016;Media;
2.52036E+11;2015;Media;
2.52036E+11;2017;Primaria;5.76
2.52036E+11;2016;Primaria;5.34
2.52036E+11;2015;Primaria;5.7
2.52036E+11;2017;Secundaria;6.5
2.52036E+11;2016;Secundaria;6.5
2.52036E+11;2015;Secundaria;7.95
2.52036E+11;2017;Media;
2.52036E+11;2016;Media;
2.52036E+11;2015;Media;
2.52036E+11;2017;Primaria;8.26
2.52036E+11;2016;Primaria;8.88
2.52036E+11;2015;Primaria;5.27
2.52036E+11;2017;Secundaria;8
2.52036E+11;2016;Secundaria;8
2.52036E+11;2015;Secundaria;4.29
2.52036E+11;2017;Media;
2.52036E+11;2016;Media;
2.52036E+11;2015;Media;
2.52036E+11;2017;Primaria;6.25
2.52036E+11;2016;Primaria;5.87
2.52036E+11;2015;Primaria;6.9
2.52036E+11;2017;Secundaria;4.02
2.52036E+11;2016;Secundaria;4.02
2.52036E+11;2015;Secundaria;7.2
2.52036E+11;2017;Media;4.27
2.52036E+11;2016;Media;7.46
2.52036E+11;2015;Media;7.5
2.52207E+11;2017;Primaria;6.91
2.52207E+11;2016;Primaria;5.05
2.52207E+11;2015;Primaria;3.79
2.52207E+11;2017;Secundaria;6.44
2.52207E+11;2016;Secundaria;6.44
2.52207E+11;2015;Secundaria;4
2.52207E+11;2017;Media;7.41
2.52207E+11;2016;Media;
2.52207E+11;2015;Media;3.89
2.52207E+11;2017;Primaria;7.6
2.52207E+11;2016;Primaria;7.41
2.52207E+11;2015;Primaria;4.72
2.52207E+11;2017;Secundaria;4.65
2.52207E+11;2016;Secundaria;4.65
2.52207E+11;2015;Secundaria;3.92
2.52207E+11;2017;Media;7.43
2.52207E+11;2016;Media;7.63
2.52207E+11;2015;Media;4.11
3.52207E+11;2017;Primaria;5.85
3.52207E+11;2016;Primaria;5.36
3.52207E+11;2015;Primaria;4.1
3.52207E+11;2017;Secundaria;5.85
3.52207E+11;2016;Secundaria;5.85
3.52207E+11;2015;Secundaria;7.23
3.52207E+11;2017;Media;7.81
3.52207E+11;2016;Media;7.52
3.52207E+11;2015;Media;7.09
1.52411E+11;2017;Primaria;7.44
1.52411E+11;2016;Primaria;5.74
1.52411E+11;2015;Primaria;4.27
1.52411E+11;2017;Secundaria;4.18
1.52411E+11;2016;Secundaria;4.18
1.52411E+11;2015;Secundaria;5.75
1.52411E+11;2017;Media;7.43
1.52411E+11;2016;Media;7.48
1.52411E+11;2015;Media;7.58
2.52411E+11;2017;Primaria;6.88
2.52411E+11;2016;Primaria;5.86
2.52411E+11;2015;Primaria;5.81
2.52411E+11;2017;Secundaria;3.82
2.52411E+11;2016;Secundaria;3.82
2.52411E+11;2015;Secundaria;
2.52411E+11;2017;Media;7.49
2.52411E+11;2016;Media;7.3
2.52411E+11;2015;Media;7.19
2.52411E+11;2017;Primaria;5.77
2.52411E+11;2016;Primaria;7.23
2.52411E+11;2015;Primaria;4.62
2.52411E+11;2017;Secundaria;5.93
2.52411E+11;2016;Secundaria;5.93
2.52411E+11;2015;Secundaria;7.31
2.52411E+11;2017;Media;7.77
2.52411E+11;2016;Media;7.63
2.52411E+11;2015;Media;7.65
1.52683E+11;2017;Primaria;5.48
1.52683E+11;2016;Primaria;4.55
1.52683E+11;2015;Primaria;4.81
1.52683E+11;2017;Secundaria;5.66
1.52683E+11;2016;Secundaria;5.66
1.52683E+11;2015;Secundaria;5.44
1.52683E+11;2017;Media;7.73
1.52683E+11;2016;Media;7.69
1.52683E+11;2015;Media;7.05
1.52683E+11;2017;Primaria;5.2
1.52683E+11;2016;Primaria;4.99
1.52683E+11;2015;Primaria;4.26
1.52683E+11;2017;Secundaria;7.5
1.52683E+11;2016;Secundaria;7.5
1.52683E+11;2015;Secundaria;7.46
1.52683E+11;2017;Media;7.94
1.52683E+11;2016;Media;7.91
1.52683E+11;2015;Media;7.28
2.52683E+11;2017;Primaria;4.59
2.52683E+11;2016;Primaria;5.16
2.52683E+11;2015;Primaria;4.3
2.52683E+11;2017;Secundaria;5.61
2.52683E+11;2016;Secundaria;5.61
2.52683E+11;2015;Secundaria;7.06
2.52683E+11;2017;Media;7.31
2.52683E+11;2016;Media;7.55
2.52683E+11;2015;Media;4.2
2.52683E+11;2017;Primaria;7.16
2.52683E+11;2016;Primaria;5.96
2.52683E+11;2015;Primaria;5.95
2.52683E+11;2017;Secundaria;4.17
2.52683E+11;2016;Secundaria;4.17
2.52683E+11;2015;Secundaria;7.15
2.52683E+11;2017;Media;7.49
2.52683E+11;2016;Media;5.38
2.52683E+11;2015;Media;4.19
2.52683E+11;2017;Primaria;6.83
2.52683E+11;2016;Primaria;5.72
2.52683E+11;2015;Primaria;5.73
2.52683E+11;2017;Secundaria;3.85
2.52683E+11;2016;Secundaria;3.85
2.52683E+11;2015;Secundaria;7.46
2.52683E+11;2017;Media;8.13
2.52683E+11;2016;Media;7.37
2.52683E+11;2015;Media;7.47
1.5252E+11;2017;Primaria;3.74
1.5252E+11;2016;Primaria;3.72
1.5252E+11;2015;Primaria;3.51
1.5252E+11;2017;Secundaria;4.2
1.5252E+11;2016;Secundaria;3.61
1.5252E+11;2015;Secundaria;3.21
1.5252E+11;2017;Media;4.07
1.5252E+11;2016;Media;4.97
1.5252E+11;2015;Media;3.34
2.5252E+11;2017;Primaria;4.01
2.5252E+11;2016;Primaria;4.06
2.5252E+11;2015;Primaria;5.33
2.5252E+11;2017;Secundaria;7.23
2.5252E+11;2016;Secundaria;7.4
2.5252E+11;2015;Secundaria;3.84
2.5252E+11;2017;Media;4.38
2.5252E+11;2016;Media;7.77
2.5252E+11;2015;Media;3.98
2.52435E+11;2017;Primaria;6.93
2.52435E+11;2016;Primaria;3.12
2.52435E+11;2015;Primaria;2.54
2.52435E+11;2017;Secundaria;3.7
2.52435E+11;2016;Secundaria;
2.52435E+11;2015;Secundaria;1.56
2.52435E+11;2017;Media;3.87
2.52435E+11;2016;Media;3.98
2.52435E+11;2015;Media;4.02
3.52435E+11;2017;Primaria;4.95
3.52435E+11;2016;Primaria;5.95
3.52435E+11;2015;Primaria;7.05
3.52435E+11;2017;Secundaria;5.96
3.52435E+11;2016;Secundaria;4.14
3.52435E+11;2015;Secundaria;7.11
3.52435E+11;2017;Media;7.41
3.52435E+11;2016;Media;4.85
3.52435E+11;2015;Media;4.38
1.52612E+11;2017;Primaria;7.75
1.52612E+11;2016;Primaria;5.09
1.52612E+11;2015;Primaria;5.61
1.52612E+11;2017;Secundaria;4
1.52612E+11;2016;Secundaria;4.01
1.52612E+11;2015;Secundaria;3.76
1.52612E+11;2017;Media;4.41
1.52612E+11;2016;Media;4.39
1.52612E+11;2015;Media;3.99
2.52612E+11;2017;Primaria;4.34
2.52612E+11;2016;Primaria;2.51
2.52612E+11;2015;Primaria;2.58
2.52612E+11;2017;Secundaria;3.89
2.52612E+11;2016;Secundaria;
2.52612E+11;2015;Secundaria;3.78
2.52612E+11;2017;Media;3.96
2.52612E+11;2016;Media;4.17
2.52612E+11;2015;Media;3.83
1.52019E+11;2017;Primaria;7.91
1.52019E+11;2016;Primaria;7.51
1.52019E+11;2015;Primaria;5.13
1.52019E+11;2017;Secundaria;4.69
1.52019E+11;2016;Secundaria;5.63
1.52019E+11;2015;Secundaria;5.96
1.52019E+11;2017;Media;7.41
1.52019E+11;2016;Media;4.36
1.52019E+11;2015;Media;7.28
1.52019E+11;2017;Primaria;5.19
1.52019E+11;2016;Primaria;5.92
1.52019E+11;2015;Primaria;5.13
1.52019E+11;2017;Secundaria;5.69
1.52019E+11;2016;Secundaria;3.98
1.52019E+11;2015;Secundaria;3.97
1.52019E+11;2017;Media;7.58
1.52019E+11;2016;Media;5.02
1.52019E+11;2015;Media;4.14
2.52019E+11;2017;Primaria;6.27
2.52019E+11;2016;Primaria;3.92
2.52019E+11;2015;Primaria;4.36
2.52019E+11;2017;Secundaria;5.78
2.52019E+11;2016;Secundaria;4.58
2.52019E+11;2015;Secundaria;3.75
2.52019E+11;2017;Media;5.11
2.52019E+11;2016;Media;3.86
2.52019E+11;2015;Media;4.34
1.52083E+11;2017;Primaria;7.47
1.52083E+11;2016;Primaria;7.74
1.52083E+11;2015;Primaria;4.9
1.52083E+11;2017;Secundaria;5.98
1.52083E+11;2016;Secundaria;7.34
1.52083E+11;2015;Secundaria;5.79
1.52083E+11;2017;Media;8.14
1.52083E+11;2016;Media;7.81
1.52083E+11;2015;Media;7.25
2.52083E+11;2017;Primaria;5.32
2.52083E+11;2016;Primaria;6.01
2.52083E+11;2015;Primaria;5.78
2.52083E+11;2017;Secundaria;5.65
2.52083E+11;2016;Secundaria;3.81
2.52083E+11;2015;Secundaria;1.62
2.52083E+11;2017;Media;7.82
2.52083E+11;2016;Media;4.27
2.52083E+11;2015;Media;4.98
2.52083E+11;2017;Primaria;7.98
2.52083E+11;2016;Primaria;7.52
2.52083E+11;2015;Primaria;5.66
2.52083E+11;2017;Secundaria;6.22
2.52083E+11;2016;Secundaria;
2.52083E+11;2015;Secundaria;6.02
2.52083E+11;2017;Media;4.56
2.52083E+11;2016;Media;7.49
2.52083E+11;2015;Media;7.26
1.52203E+11;2017;Primaria;6.46
1.52203E+11;2016;Primaria;7
1.52203E+11;2015;Primaria;4.94
1.52203E+11;2017;Secundaria;7.21
1.52203E+11;2016;Secundaria;7.13
1.52203E+11;2015;Secundaria;7.25
1.52203E+11;2017;Media;7.76
1.52203E+11;2016;Media;7.97
1.52203E+11;2015;Media;4.13
2.52203E+11;2017;Primaria;6.98
2.52203E+11;2016;Primaria;5.92
2.52203E+11;2015;Primaria;5.77
2.52203E+11;2017;Secundaria;4.27
2.52203E+11;2016;Secundaria;4.19
2.52203E+11;2015;Secundaria;3.86
2.52203E+11;2017;Media;7.67
2.52203E+11;2016;Media;7.39
2.52203E+11;2015;Media;4.16
2.52203E+11;2017;Primaria;4.82
2.52203E+11;2016;Primaria;6.42
2.52203E+11;2015;Primaria;4.85
2.52203E+11;2017;Secundaria;6.03
2.52203E+11;2016;Secundaria;3.87
2.52203E+11;2015;Secundaria;3.99
2.52203E+11;2017;Media;8.19
2.52203E+11;2016;Media;7.66
2.52203E+11;2015;Media;6.82
3.52203E+11;2017;Primaria;6.76
3.52203E+11;2016;Primaria;4.64
3.52203E+11;2015;Primaria;1.6
3.52203E+11;2017;Secundaria;7.49
3.52203E+11;2016;Secundaria;5.94
3.52203E+11;2015;Secundaria;4.82
3.52203E+11;2017;Media;8.16
3.52203E+11;2016;Media;8.95
3.52203E+11;2015;Media;7.48
1.52258E+11;2017;Primaria;6.03
1.52258E+11;2016;Primaria;6.18
1.52258E+11;2015;Primaria;4
1.52258E+11;2017;Secundaria;6.29
1.52258E+11;2016;Secundaria;3.86
1.52258E+11;2015;Secundaria;5.01
1.52258E+11;2017;Media;5.52
1.52258E+11;2016;Media;5.06
1.52258E+11;2015;Media;4
2.52258E+11;2017;Primaria;5.69
2.52258E+11;2016;Primaria;7.94
2.52258E+11;2015;Primaria;6.52
2.52258E+11;2017;Secundaria;4.04
2.52258E+11;2016;Secundaria;
2.52258E+11;2015;Secundaria;4.08
2.52258E+11;2017;Media;7.51
2.52258E+11;2016;Media;4.74
2.52258E+11;2015;Media;6.23
2.52258E+11;2017;Primaria;6.67
2.52258E+11;2016;Primaria;5.02
2.52258E+11;2015;Primaria;5.08
2.52258E+11;2017;Secundaria;7.35
2.52258E+11;2016;Secundaria;7.33
2.52258E+11;2015;Secundaria;5.78
2.52258E+11;2017;Media;7.35
2.52258E+11;2016;Media;7.23
2.52258E+11;2015;Media;7.47
2.52258E+11;2017;Primaria;4.56
2.52258E+11;2016;Primaria;4.82
2.52258E+11;2015;Primaria;3.83
2.52258E+11;2017;Secundaria;6.14
2.52258E+11;2016;Secundaria;3.89
2.52258E+11;2015;Secundaria;3.78
2.52258E+11;2017;Media;7.45
2.52258E+11;2016;Media;4.19
2.52258E+11;2015;Media;6.92
1.52378E+11;2017;Primaria;5.96
1.52378E+11;2016;Primaria;6.52
1.52378E+11;2015;Primaria;1.67
1.52378E+11;2017;Secundaria;5.81
1.52378E+11;2016;Secundaria;5.67
1.52378E+11;2015;Secundaria;5.46
1.52378E+11;2017;Media;7.73
1.52378E+11;2016;Media;7.83
1.52378E+11;2015;Media;7.24
1.52378E+11;2017;Primaria;6.74
1.52378E+11;2016;Primaria;7.04
1.52378E+11;2015;Primaria;5.99
1.52378E+11;2017;Secundaria;7.62
1.52378E+11;2016;Secundaria;3.77
1.52378E+11;2015;Secundaria;7.35
1.52378E+11;2017;Media;5.3
1.52378E+11;2016;Media;4.55
1.52378E+11;2015;Media;5.1
1.52378E+11;2017;Primaria;8.5
1.52378E+11;2016;Primaria;7.6
1.52378E+11;2015;Primaria;8.24
1.52378E+11;2017;Secundaria;4.66
1.52378E+11;2016;Secundaria;3.92
1.52378E+11;2015;Secundaria;3.89
1.52378E+11;2017;Media;8.26
1.52378E+11;2016;Media;7.62
1.52378E+11;2015;Media;7.35
2.52378E+11;2017;Primaria;8.03
2.52378E+11;2016;Primaria;4.12
2.52378E+11;2015;Primaria;4.11
2.52378E+11;2017;Secundaria;2.82
2.52378E+11;2016;Secundaria;5.56
2.52378E+11;2015;Secundaria;3.68
2.52378E+11;2017;Media;6.46
2.52378E+11;2016;Media;3.84
2.52378E+11;2015;Media;5.09
2.52378E+11;2017;Primaria;6.18
2.52378E+11;2016;Primaria;7.71
2.52378E+11;2015;Primaria;5.9
2.52378E+11;2017;Secundaria;5.69
2.52378E+11;2016;Secundaria;7.14
2.52378E+11;2015;Secundaria;2.73
2.52378E+11;2017;Media;3.96
2.52378E+11;2016;Media;5.49
2.52378E+11;2015;Media;4.61
2.52378E+11;2017;Primaria;5.88
2.52378E+11;2016;Primaria;5.16
2.52378E+11;2015;Primaria;3.4
2.52378E+11;2017;Secundaria;
2.52378E+11;2016;Secundaria;
2.52378E+11;2015;Secundaria;3.15
2.52378E+11;2017;Media;8
2.52378E+11;2016;Media;7.31
2.52378E+11;2015;Media;3.98
2.52019E+11;2017;Primaria;5.68
2.52019E+11;2016;Primaria;4.88
2.52019E+11;2015;Primaria;5.91
2.52019E+11;2017;Secundaria;4.19
2.52019E+11;2016;Secundaria;6.22
2.52019E+11;2015;Secundaria;5.89
2.52019E+11;2017;Media;4.26
2.52019E+11;2016;Media;4.28
2.52019E+11;2015;Media;5.59
2.52019E+11;2017;Primaria;6.97
2.52019E+11;2016;Primaria;7.91
2.52019E+11;2015;Primaria;4.26
2.52019E+11;2017;Secundaria;7.36
2.52019E+11;2016;Secundaria;7.59
2.52019E+11;2015;Secundaria;7.21
2.52019E+11;2017;Media;7.56
2.52019E+11;2016;Media;7.5
2.52019E+11;2015;Media;7.44
1.52693E+11;2017;Primaria;4.09
1.52693E+11;2016;Primaria;2.91
1.52693E+11;2015;Primaria;1.63
1.52693E+11;2017;Secundaria;5.02
1.52693E+11;2016;Secundaria;4.34
1.52693E+11;2015;Secundaria;3.71
1.52693E+11;2017;Media;4.41
1.52693E+11;2016;Media;7.4
1.52693E+11;2015;Media;7.17
1.52693E+11;2017;Primaria;5.73
1.52693E+11;2016;Primaria;6.18
1.52693E+11;2015;Primaria;5.69
1.52693E+11;2017;Secundaria;5.9
1.52693E+11;2016;Secundaria;7.41
1.52693E+11;2015;Secundaria;7.25
1.52693E+11;2017;Media;8.09
1.52693E+11;2016;Media;7.88
1.52693E+11;2015;Media;7.34
2.52693E+11;2017;Primaria;6.77
2.52693E+11;2016;Primaria;4.85
2.52693E+11;2015;Primaria;6.27
2.52693E+11;2017;Secundaria;7.33
2.52693E+11;2016;Secundaria;4.17
2.52693E+11;2015;Secundaria;7.16
2.52693E+11;2017;Media;7.5
2.52693E+11;2016;Media;7.34
2.52693E+11;2015;Media;7.09
1.5232E+11;2017;Primaria;7.54
1.5232E+11;2016;Primaria;6.74
1.5232E+11;2015;Primaria;7.06
1.5232E+11;2017;Secundaria;7.18
1.5232E+11;2016;Secundaria;4.11
1.5232E+11;2015;Secundaria;7.28
1.5232E+11;2017;Media;4.55
1.5232E+11;2016;Media;7.47
1.5232E+11;2015;Media;7.01
1.5232E+11;2017;Primaria;7.51
1.5232E+11;2016;Primaria;6.9
1.5232E+11;2015;Primaria;6.56
1.5232E+11;2017;Secundaria;5.94
1.5232E+11;2016;Secundaria;6.28
1.5232E+11;2015;Secundaria;4.04
1.5232E+11;2017;Media;7.67
1.5232E+11;2016;Media;7.42
1.5232E+11;2015;Media;7.56
2.5232E+11;2017;Primaria;6.76
2.5232E+11;2016;Primaria;7.42
2.5232E+11;2015;Primaria;4.06
2.5232E+11;2017;Secundaria;6.71
2.5232E+11;2016;Secundaria;
2.5232E+11;2015;Secundaria;5.97
2.5232E+11;2017;Media;7.8
2.5232E+11;2016;Media;7.21
2.5232E+11;2015;Media;7.68
1.52354E+11;2017;Primaria;5.79
1.52354E+11;2016;Primaria;
1.52354E+11;2015;Primaria;5.16
1.52354E+11;2017;Secundaria;5.71
1.52354E+11;2016;Secundaria;5.77
1.52354E+11;2015;Secundaria;6.18
1.52354E+11;2017;Media;5.39
1.52354E+11;2016;Media;4.18
1.52354E+11;2015;Media;4.2
2.52354E+11;2017;Primaria;4.88
2.52354E+11;2016;Primaria;4.12
2.52354E+11;2015;Primaria;4.1
2.52354E+11;2017;Secundaria;4.43
2.52354E+11;2016;Secundaria;3.99
2.52354E+11;2015;Secundaria;4.59
2.52354E+11;2017;Media;4.32
2.52354E+11;2016;Media;7.38
2.52354E+11;2015;Media;4.35
2.52354E+11;2017;Primaria;4.02
2.52354E+11;2016;Primaria;4.3
2.52354E+11;2015;Primaria;5.71
2.52354E+11;2017;Secundaria;6.02
2.52354E+11;2016;Secundaria;5.83
2.52354E+11;2015;Secundaria;7.39
2.52354E+11;2017;Media;7.58
2.52354E+11;2016;Media;7.36
2.52354E+11;2015;Media;4.66
1.52506E+11;2017;Primaria;6.13
1.52506E+11;2016;Primaria;6.28
1.52506E+11;2015;Primaria;4.83
1.52506E+11;2017;Secundaria;5.79
1.52506E+11;2016;Secundaria;7.52
1.52506E+11;2015;Secundaria;7.43
1.52506E+11;2017;Media;7.53
1.52506E+11;2016;Media;7.57
1.52506E+11;2015;Media;4.4
2.52506E+11;2017;Primaria;
2.52506E+11;2016;Primaria;6.24
2.52506E+11;2015;Primaria;6.16
2.52506E+11;2017;Secundaria;
2.52506E+11;2016;Secundaria;3.26
2.52506E+11;2015;Secundaria;5.84
2.52506E+11;2017;Media;4.34
2.52506E+11;2016;Media;7.49
2.52506E+11;2015;Media;7.86
1.5272E+11;2017;Primaria;4.78
1.5272E+11;2016;Primaria;4.98
1.5272E+11;2015;Primaria;2.82
1.5272E+11;2017;Secundaria;7.25
1.5272E+11;2016;Secundaria;7.18
1.5272E+11;2015;Secundaria;6.55
1.5272E+11;2017;Media;7.76
1.5272E+11;2016;Media;7.33
1.5272E+11;2015;Media;6.94
2.5272E+11;2017;Primaria;7.97
2.5272E+11;2016;Primaria;7.04
2.5272E+11;2015;Primaria;5.87
2.5272E+11;2017;Secundaria;4.41
2.5272E+11;2016;Secundaria;5.5
2.5272E+11;2015;Secundaria;1.6
2.5272E+11;2017;Media;4.42
2.5272E+11;2016;Media;4.18
2.5272E+11;2015;Media;7.37
2.5272E+11;2017;Primaria;6.19
2.5272E+11;2016;Primaria;4.78
2.5272E+11;2015;Primaria;3.97
2.5272E+11;2017;Secundaria;4.89
2.5272E+11;2016;Secundaria;5.35
2.5272E+11;2015;Secundaria;7.12
2.5272E+11;2017;Media;4.04
2.5272E+11;2016;Media;5.3
2.5272E+11;2015;Media;4.18
1.52838E+11;2017;Primaria;5.54
1.52838E+11;2016;Primaria;4.15
1.52838E+11;2015;Primaria;5.51
1.52838E+11;2017;Secundaria;5.65
1.52838E+11;2016;Secundaria;5.45
1.52838E+11;2015;Secundaria;6.32
1.52838E+11;2017;Media;7.42
1.52838E+11;2016;Media;7.56
1.52838E+11;2015;Media;3.72
3.52838E+11;2017;Primaria;6.84
3.52838E+11;2016;Primaria;6.88
3.52838E+11;2015;Primaria;5.73
3.52838E+11;2017;Secundaria;7.64
3.52838E+11;2016;Secundaria;7.75
3.52838E+11;2015;Secundaria;7.06
3.52838E+11;2017;Media;7.72
3.52838E+11;2016;Media;7.68
3.52838E+11;2015;Media;7.37
2.52838E+11;2017;Primaria;2.92
2.52838E+11;2016;Primaria;4.35
2.52838E+11;2015;Primaria;2.85
2.52838E+11;2017;Secundaria;4.31
2.52838E+11;2016;Secundaria;4.15
2.52838E+11;2015;Secundaria;3.95
2.52838E+11;2017;Media;4.06
2.52838E+11;2016;Media;4.58
2.52838E+11;2015;Media;4.06
2.52838E+11;2017;Primaria;5.89
2.52838E+11;2016;Primaria;6.13
2.52838E+11;2015;Primaria;4.15
2.52838E+11;2017;Secundaria;7.11
2.52838E+11;2016;Secundaria;4.59
2.52838E+11;2015;Secundaria;6.41
2.52838E+11;2017;Media;7.44
2.52838E+11;2016;Media;3.91
2.52838E+11;2015;Media;4.04
1.52838E+11;2017;Primaria;5.13
1.52838E+11;2016;Primaria;5.42
1.52838E+11;2015;Primaria;4.11
1.52838E+11;2017;Secundaria;7.61
1.52838E+11;2016;Secundaria;5.73
1.52838E+11;2015;Secundaria;7.29
1.52838E+11;2017;Media;7.71
1.52838E+11;2016;Media;7.73
1.52838E+11;2015;Media;7.22
1.52838E+11;2017;Primaria;7.66
1.52838E+11;2016;Primaria;7.56
1.52838E+11;2015;Primaria;5.67
1.52838E+11;2017;Secundaria;7.29
1.52838E+11;2016;Secundaria;4.01
1.52838E+11;2015;Secundaria;5.25
1.52838E+11;2017;Media;6.6
1.52838E+11;2016;Media;4.05
1.52838E+11;2015;Media;2.25
1.52838E+11;2017;Primaria;5.14
1.52838E+11;2016;Primaria;6.25
1.52838E+11;2015;Primaria;5.95
1.52838E+11;2017;Secundaria;5.85
1.52838E+11;2016;Secundaria;7.34
1.52838E+11;2015;Secundaria;7.44
1.52838E+11;2017;Media;7.4
1.52838E+11;2016;Media;7.63
1.52838E+11;2015;Media;7.52
2.52838E+11;2017;Primaria;7.28
2.52838E+11;2016;Primaria;7.15
2.52838E+11;2015;Primaria;6.83
2.52838E+11;2017;Secundaria;
2.52838E+11;2016;Secundaria;4.09
2.52838E+11;2015;Secundaria;5.76
2.52838E+11;2017;Media;7.44
2.52838E+11;2016;Media;7.21
2.52838E+11;2015;Media;3.75
2.52838E+11;2017;Primaria;4.56
2.52838E+11;2016;Primaria;4.06
2.52838E+11;2015;Primaria;2.95
2.52838E+11;2017;Secundaria;4.75
2.52838E+11;2016;Secundaria;3.32
2.52838E+11;2015;Secundaria;4.11
2.52838E+11;2017;Media;4.12
2.52838E+11;2016;Media;5.18
2.52838E+11;2015;Media;4.01
4.52838E+11;2017;Primaria;5.14
4.52838E+11;2016;Primaria;5.76
4.52838E+11;2015;Primaria;2.69
4.52838E+11;2017;Secundaria;5.87
4.52838E+11;2016;Secundaria;3.8
4.52838E+11;2015;Secundaria;4.23
4.52838E+11;2017;Media;4.02
4.52838E+11;2016;Media;5.54
4.52838E+11;2015;Media;4
1.5225E+11;2017;Primaria;3.76
1.5225E+11;2016;Primaria;6.37
1.5225E+11;2015;Primaria;4.88
1.5225E+11;2017;Secundaria;4.56
1.5225E+11;2016;Secundaria;3.68
1.5225E+11;2015;Secundaria;4.28
1.5225E+11;2017;Media;4.25
1.5225E+11;2016;Media;4.06
1.5225E+11;2015;Media;3.96
1.5225E+11;2017;Primaria;5.15
1.5225E+11;2016;Primaria;3.6
1.5225E+11;2015;Primaria;3.37
1.5225E+11;2017;Secundaria;5.05
1.5225E+11;2016;Secundaria;3.2
1.5225E+11;2015;Secundaria;3.09
1.5225E+11;2017;Media;4
1.5225E+11;2016;Media;4.74
1.5225E+11;2015;Media;3.75
1.5225E+11;2017;Primaria;3.46
1.5225E+11;2016;Primaria;
1.5225E+11;2015;Primaria;1
1.5225E+11;2017;Secundaria;4.77
1.5225E+11;2016;Secundaria;
1.5225E+11;2015;Secundaria;1
1.5225E+11;2017;Media;2.82
1.5225E+11;2016;Media;5.34
1.5225E+11;2015;Media;1.92
2.5225E+11;2017;Primaria;7.5
2.5225E+11;2016;Primaria;5.77
2.5225E+11;2015;Primaria;1
2.5225E+11;2017;Secundaria;
2.5225E+11;2016;Secundaria;
2.5225E+11;2015;Secundaria;2.26
2.5225E+11;2017;Media;
2.5225E+11;2016;Media;4.07
2.5225E+11;2015;Media;1.65
2.5225E+11;2017;Primaria;
2.5225E+11;2016;Primaria;
2.5225E+11;2015;Primaria;
2.5225E+11;2017;Secundaria;
2.5225E+11;2016;Secundaria;
2.5225E+11;2015;Secundaria;
2.5225E+11;2017;Media;
2.5225E+11;2016;Media;
2.5225E+11;2015;Media;
2.5225E+11;2017;Primaria;3.77
2.5225E+11;2016;Primaria;7.18
2.5225E+11;2015;Primaria;3.27
2.5225E+11;2017;Secundaria;
2.5225E+11;2016;Secundaria;
2.5225E+11;2015;Secundaria;3.13
2.5225E+11;2017;Media;4.33
2.5225E+11;2016;Media;3.71
2.5225E+11;2015;Media;1.83
2.5225E+11;2017;Primaria;5.75
2.5225E+11;2016;Primaria;4.66
2.5225E+11;2015;Primaria;1.56
2.5225E+11;2017;Secundaria;4.79
2.5225E+11;2016;Secundaria;
2.5225E+11;2015;Secundaria;1.67
2.5225E+11;2017;Media;4.23
2.5225E+11;2016;Media;3.72
2.5225E+11;2015;Media;3.77
3.5225E+11;2017;Primaria;5.05
3.5225E+11;2016;Primaria;4.3
3.5225E+11;2015;Primaria;5.14
3.5225E+11;2017;Secundaria;4.57
3.5225E+11;2016;Secundaria;4.15
3.5225E+11;2015;Secundaria;3.52
3.5225E+11;2017;Media;4.45
3.5225E+11;2016;Media;3.98
3.5225E+11;2015;Media;4.22
2.5225E+11;2017;Primaria;3.48
2.5225E+11;2016;Primaria;3.99
2.5225E+11;2015;Primaria;3.55
2.5225E+11;2017;Secundaria;3.61
2.5225E+11;2016;Secundaria;3.46
2.5225E+11;2015;Secundaria;5.16
2.5225E+11;2017;Media;4.22
2.5225E+11;2016;Media;3.92
2.5225E+11;2015;Media;
2.5225E+11;2017;Primaria;2.62
2.5225E+11;2016;Primaria;3.66
2.5225E+11;2015;Primaria;1.71
2.5225E+11;2017;Secundaria;2.58
2.5225E+11;2016;Secundaria;4.03
2.5225E+11;2015;Secundaria;3.4
2.5225E+11;2017;Media;3.89
2.5225E+11;2016;Media;3.82
2.5225E+11;2015;Media;4.66
1.52473E+11;2017;Primaria;3.92
1.52473E+11;2016;Primaria;4.23
1.52473E+11;2015;Primaria;4.08
1.52473E+11;2017;Secundaria;3.68
1.52473E+11;2016;Secundaria;3.59
1.52473E+11;2015;Secundaria;1.42
1.52473E+11;2017;Media;4.1
1.52473E+11;2016;Media;4.98
1.52473E+11;2015;Media;4.17
2.52473E+11;2017;Primaria;6.13
2.52473E+11;2016;Primaria;3.95
2.52473E+11;2015;Primaria;1.45
2.52473E+11;2017;Secundaria;
2.52473E+11;2016;Secundaria;3.47
2.52473E+11;2015;Secundaria;1
2.52473E+11;2017;Media;
2.52473E+11;2016;Media;
2.52473E+11;2015;Media;
1.5249E+11;2017;Primaria;4.12
1.5249E+11;2016;Primaria;3.99
1.5249E+11;2015;Primaria;3.65
1.5249E+11;2017;Secundaria;4.17
1.5249E+11;2016;Secundaria;3.46
1.5249E+11;2015;Secundaria;4.1
1.5249E+11;2017;Media;3.97
1.5249E+11;2016;Media;3.97
1.5249E+11;2015;Media;4.71
1.5249E+11;2017;Primaria;4.48
1.5249E+11;2016;Primaria;3.74
1.5249E+11;2015;Primaria;3.5
1.5249E+11;2017;Secundaria;3.64
1.5249E+11;2016;Secundaria;3.94
1.5249E+11;2015;Secundaria;3.51
1.5249E+11;2017;Media;3.92
1.5249E+11;2016;Media;3.9
1.5249E+11;2015;Media;3.91
2.5249E+11;2017;Primaria;6.02
2.5249E+11;2016;Primaria;4.37
2.5249E+11;2015;Primaria;1.86
2.5249E+11;2017;Secundaria;3.66
2.5249E+11;2016;Secundaria;
2.5249E+11;2015;Secundaria;2.61
2.5249E+11;2017;Media;3.81
2.5249E+11;2016;Media;4.48
2.5249E+11;2015;Media;3.32
2.5249E+11;2017;Primaria;4.09
2.5249E+11;2016;Primaria;3.59
2.5249E+11;2015;Primaria;2.94
2.5249E+11;2017;Secundaria;3.43
2.5249E+11;2016;Secundaria;
2.5249E+11;2015;Secundaria;2.19
2.5249E+11;2017;Media;4.67
2.5249E+11;2016;Media;
2.5249E+11;2015;Media;
2.5249E+11;2017;Primaria;4.04
2.5249E+11;2016;Primaria;5.82
2.5249E+11;2015;Primaria;3.58
2.5249E+11;2017;Secundaria;3.55
2.5249E+11;2016;Secundaria;3.31
2.5249E+11;2015;Secundaria;1.78
2.5249E+11;2017;Media;3.78
2.5249E+11;2016;Media;3.77
2.5249E+11;2015;Media;3.86
2.5249E+11;2017;Primaria;3.62
2.5249E+11;2016;Primaria;3.33
2.5249E+11;2015;Primaria;4.29
2.5249E+11;2017;Secundaria;
2.5249E+11;2016;Secundaria;4.59
2.5249E+11;2015;Secundaria;2.76
2.5249E+11;2017;Media;
2.5249E+11;2016;Media;
2.5249E+11;2015;Media;
1.52696E+11;2017;Primaria;4.08
1.52696E+11;2016;Primaria;2.67
1.52696E+11;2015;Primaria;3.61
1.52696E+11;2017;Secundaria;3.77
1.52696E+11;2016;Secundaria;3.85
1.52696E+11;2015;Secundaria;3.61
1.52696E+11;2017;Media;3.79
1.52696E+11;2016;Media;3.95
1.52696E+11;2015;Media;3.88
1.52079E+11;2017;Primaria;4.01
1.52079E+11;2016;Primaria;
1.52079E+11;2015;Primaria;2.67
1.52079E+11;2017;Secundaria;3.66
1.52079E+11;2016;Secundaria;
1.52079E+11;2015;Secundaria;2.01
1.52079E+11;2017;Media;4.05
1.52079E+11;2016;Media;3.95
1.52079E+11;2015;Media;1.85
1.52079E+11;2017;Primaria;5.91
1.52079E+11;2016;Primaria;4.62
1.52079E+11;2015;Primaria;2.61
1.52079E+11;2017;Secundaria;5.39
1.52079E+11;2016;Secundaria;3.62
1.52079E+11;2015;Secundaria;2.6
1.52079E+11;2017;Media;5.91
1.52079E+11;2016;Media;4.14
1.52079E+11;2015;Media;1.98
2.52079E+11;2017;Primaria;5.23
2.52079E+11;2016;Primaria;3.61
2.52079E+11;2015;Primaria;1.67
2.52079E+11;2017;Secundaria;3.63
2.52079E+11;2016;Secundaria;3.52
2.52079E+11;2015;Secundaria;1.7
2.52079E+11;2017;Media;5.23
2.52079E+11;2016;Media;4.18
2.52079E+11;2015;Media;3.81
2.52079E+11;2017;Primaria;4.08
2.52079E+11;2016;Primaria;2.84
2.52079E+11;2015;Primaria;3.61
2.52079E+11;2017;Secundaria;
2.52079E+11;2016;Secundaria;
2.52079E+11;2015;Secundaria;1.56
2.52079E+11;2017;Media;4.08
2.52079E+11;2016;Media;4.15
2.52079E+11;2015;Media;5.89
2.52079E+11;2017;Primaria;5.46
2.52079E+11;2016;Primaria;
2.52079E+11;2015;Primaria;1
2.52079E+11;2017;Secundaria;5.69
2.52079E+11;2016;Secundaria;
2.52079E+11;2015;Secundaria;1
2.52079E+11;2017;Media;5.46
2.52079E+11;2016;Media;5.22
2.52079E+11;2015;Media;
1.52427E+11;2017;Primaria;8.12
1.52427E+11;2016;Primaria;3.87
1.52427E+11;2015;Primaria;3.15
1.52427E+11;2017;Secundaria;3.78
1.52427E+11;2016;Secundaria;3.5
1.52427E+11;2015;Secundaria;3.37
1.52427E+11;2017;Media;8.12
1.52427E+11;2016;Media;3.85
1.52427E+11;2015;Media;3.85
2.52621E+11;2017;Primaria;3.94
2.52621E+11;2016;Primaria;
2.52621E+11;2015;Primaria;3.39
2.52621E+11;2017;Secundaria;3.93
2.52621E+11;2016;Secundaria;3.78
2.52621E+11;2015;Secundaria;3.17
2.52621E+11;2017;Media;3.94
2.52621E+11;2016;Media;3.81
2.52621E+11;2015;Media;4.28
2.52621E+11;2017;Primaria;6.15
2.52621E+11;2016;Primaria;5.44
2.52621E+11;2015;Primaria;1.86
2.52621E+11;2017;Secundaria;4.3
2.52621E+11;2016;Secundaria;5.18
2.52621E+11;2015;Secundaria;2.73
2.52621E+11;2017;Media;6.15
2.52621E+11;2016;Media;4.37
2.52621E+11;2015;Media;1.76
2.52621E+11;2017;Primaria;5.83
2.52621E+11;2016;Primaria;5.36
2.52621E+11;2015;Primaria;5.7
2.52621E+11;2017;Secundaria;4.18
2.52621E+11;2016;Secundaria;5.84
2.52621E+11;2015;Secundaria;5.66
2.52621E+11;2017;Media;7.67
2.52621E+11;2016;Media;7.52
2.52621E+11;2015;Media;7.25
2.52227E+11;2017;Primaria;4.99
2.52227E+11;2016;Primaria;6.95
2.52227E+11;2015;Primaria;6.37
2.52227E+11;2017;Secundaria;7.3
2.52227E+11;2016;Secundaria;3.87
2.52227E+11;2015;Secundaria;3.4
2.52227E+11;2017;Media;4.2
2.52227E+11;2016;Media;7.3
2.52227E+11;2015;Media;4.2
